[api-updater (non-obsolete-error-filter)] 2022/1/6 上午 12:34:47 : Starting C:/Program Files/Unity/Hub/Editor/2020.3.25f1/Editor/Data/Tools/ScriptUpdater/APIUpdater.NonObsoleteApiUpdaterDetector.exe
[api-updater (non-obsolete-error-filter)] 
----------------------------------
jit/startup time      : 259.8136ms
moved types parse time: 128ms
candidates parse time : 1ms
C# parse time         : 575ms
candidates check time : 138ms
console write time    : 1ms

